{
  "name": " ",
  "children": [
    {
      "name": "Interactive tools",
      "free": true,
      "description": "Interactive authoring tools",
      "children": [
        {
          "name": "Browser-based",
          "description": "Web-based 'cloud' applications for authoring data visualisations",
          "free": true,
          "children": [
            {
              "name": "Datawrapper",
              "description": "An open-source platform for publishing charts on the web. Cloud-based or self-hosted.",
              "url": "https://datawrapper.de/",
              "free": true
            },
            {
              "name": "Google Sheets",
              "description": "Spreadsheet in the cloud with charting",
              "free": true
            },
            {
              "name": "plotly",
              "description": "Cloud-based interactive tool for creating data visualisations",
              "url": "https://plot.ly/",
              "free": true
            },
            {
              "name": "RAW",
              "description": "Open-source interactive tool for creating and exporting D3-like charts",
              "url": "http://raw.densitydesign.org/",
              "free": true
            }
          ]
        },
        {
          "name": "Desktop",
          "children": [
            {
              "name": "Tableau Desktop",
              "description": "Powerful tool for data analytics and visualisation",
              "url": "http://www.tableausoftware.com/products/desktop"
            },
            {
              "name": "Tableau Public",
              "description": "Free version of Tableau Desktop where charts are public",
              "url": "http://www.tableausoftware.com/products/public",
              "free": true
            }
          ]
        }
      ]
    },
    {
      "name": "Coding",
      "description": "Code-based data visualisation creation",
      "free": true,
      "children": [
        {
          "name": "JavaScript",
          "description": "The language behind most (all?) browser-based data visualisations",
          "free": true,
          "children": [
            {
              "name": "Charting libraries",
              "description": "Off-the-shelf pre-designed charts. Easy to use but less flexible.",
              "free": true,
              "children": [
                {
                  "name": "Google Charts",
                  "description": "A good selection of charts including bar, line, scatter, geo, pie, donut, org etc.",
                  "url": "https://developers.google.com/chart/",
                  "free": true
                },
                {
                  "name": "HighCharts",
                  "description": "A well maintained commercial library of commonly used chart types",
                  "url": "https://www.highcharts.com/"
                },
                {
                  "name": "InfoVis",
                  "description": "A lovely selection of charts including bar, pie, sunburst, icicle, network, trees etc.",
                  "url": "https://philogb.github.io/jit/",
                  "free": true
                },
                {
                  "name": "Mapping",
                  "description": "Libraries for visualising geographic data",
                  "free": true,
                  "children": [
                    {
                      "name": "Kartograph",
                      "description": "Lovely vector based mapping library with good browser support",
                      "url": "http://kartograph.org/",
                      "free": true
                    },
                    {
                      "name": "Leaflet",
                      "description": "Tile-based mapping library",
                      "url": "http://leafletjs.com/",
                      "free": true
                    }
                  ]
                },
                {
                  "name": "MetricsGraphics.js",
                  "description": "Beautiful line, scatter and histogram charts built on top of D3",
                  "url": "http://metricsgraphicsjs.org/",
                  "free": true
                },
                {
                  "name": "NVD3",
                  "description": "A general purpose charting library built on top of D3",
                  "url": "http://nvd3.org/",
                  "free": true
                },
                {
                  "name": "Sigma",
                  "description": "Library for visualising networks",
                  "url": "http://sigmajs.org/",
                  "free": true
                }
              ]
            },
            {
              "name": "Custom coded",
              "description": "For maximum flexibility, custom coding is the way to go. These libraries will lend a hand.",
              "free": true,
              "children": [
                {
                  "name": "D3",
                  "description": "The jewel in the crown of web-based data visualisation. A library packed full of components for building any data visualisation you can imagine.",
                  "url": "https://d3js.org/",
                  "free": true
                },
                {
                  "name": "Ractive",
                  "description": "Relatively new, Ractive helps you make your HTML and SVG interactive",
                  "url": "http://www.ractivejs.org/",
                  "free": true
                },
                {
                  "name": "Raphaël",
                  "description": "A general purpose drawing library with good browser support",
                  "url": "http://raphaeljs.com/",
                  "free": true
                },
                {
                  "name": "Snap.svg",
                  "description": "A modern version of Raphaël that supports modern browsers",
                  "url": "http://snapsvg.io/",
                  "free": true
                },
                {
                  "name": "Variance",
                  "description": "A declarative, mark-up based data visualisation library",
                  "url": "https://variancecharts.com/"
                },
                {
                  "name": "Vega",
                  "description": "A declarative language for specifying data visualistions",
                  "url": "https://trifacta.github.io/vega/",
                  "free": true
                }
              ]
            }
          ]
        },
        {
          "name": "Other",
          "description": "Non-JavaScript languages for producing web-based data visualisations",
          "free": true,
          "children": [
            {
              "name": "Python",
              "description": "Python's a very popular language in data science and is a pleasant language to learn and use",
              "free": true,
              "children": [
                {
                  "name": "Bokeh",
                  "description": "A powerful tool for producing interactive plots, dashboards and data applications",
                  "url": "https://bokeh.pydata.org/",
                  "free": true
                }
              ]
            },
            {
              "name": "R",
              "description": "Very popular language for data science",
              "free": true,
              "children": [
                {
                  "name": "Shiny",
                  "description": "A platform for producing web applications using R",
                  "url": "http://shiny.rstudio.com/",
                  "free": true
                }
              ]
            }
          ]
        }
      ]
    }
  ]
}