[
  {
    "name": "Яндекс.Деньги",
    "code": 45,
    "min": 10,
    "commission": 0.5,
    "example": 123456789101234
  },
  {
    "name": "Qiwi",
    "code": 63,
    "min": 100,
    "commission": 4,
    "example": 79999999999
  },
  {
    "name": "Okpay",
    "code": 60,
    "min": 10,
    "commission": 2.5,
    "example": "OK123456789"
  },
  {
    "name": "Payeer",
    "code": 114,
    "min": 10,
    "commission": 4.5,
    "example": "P12345678"
  },
  {
    "name": "AdvCash",
    "code": 150,
    "min": 10,
    "commission": 3,
    "example": "R123456789012"
  },
  {
    "name": "Участнику проекта",
    "code": 1919,
    "min": 1,
    "commission": 0,
    "example": "000123456789"
  },
  {
    "name": "BuxOne.click",
    "code": 1999,
    "min": 1,
    "commission": 1,
    "example": "Ваш логин на BuxOne.click"
  }
]